{
    "feed_url": "https://zealusercontributions.now.sh/docsets/Cython.xml",
    "name": "Cython",
    "title": "Cython",
    "urls": [
        "http://kapeli.com/feeds/zzz/user_contributed/build/Cython/Cython.tgz",
        "http://sanfrancisco.kapeli.com/feeds/zzz/user_contributed/build/Cython/Cython.tgz",
        "http://newyork.kapeli.com/feeds/zzz/user_contributed/build/Cython/Cython.tgz",
        "http://london.kapeli.com/feeds/zzz/user_contributed/build/Cython/Cython.tgz",
        "http://frankfurt.kapeli.com/feeds/zzz/user_contributed/build/Cython/Cython.tgz"
    ],
    "version": "0.21"
}
