version="9"
logging="yes"
name="jobs"
enabled="yes"
type="17"
action="Move to folder"
actionValue="imap://asmo4461@ebox.su.se/Notifications/jobs"
condition="OR (from,is,gfd-list-request@whoi.edu) OR (from,is,met-jobs-request@lists.reading.ac.uk)"
name="Research Professional"
enabled="yes"
type="17"
action="Move to folder"
actionValue="imap://asmo4461@ebox.su.se/Notifications/newsletters"
condition="AND (from,is,news@researchprofessional.com)"
name="cffi"
enabled="yes"
type="17"
action="Move to folder"
actionValue="imap://asmo4461@ebox.su.se/Notifications/cffi"
condition="AND (to or cc,contains,python-cffi@googlegroups.com)"
name="Mailing list reminders"
enabled="yes"
type="17"
action="Move to folder"
actionValue="imap://asmo4461@ebox.su.se/Trash"
condition="OR (subject,ends with,mailing list memberships reminder)"
name="Junk"
enabled="yes"
type="48"
action="Move to folder"
actionValue="imap://asmo4461@ebox.su.se/Junk"
condition="AND (junk status,is,2)"
name="hpc"
enabled="yes"
type="17"
action="Move to folder"
actionValue="imap://asmo4461@ebox.su.se/Notifications/hpc"
condition="OR (from,is,training-announce@lists.snic.se) OR (from,is,slurm@tetra.nsc.liu.se) OR (from,is,support@nsc.liu.se) OR (to or cc,is,bolinc-storage@misu.su.se)"
name="apps"
enabled="yes"
type="17"
action="Move to folder"
actionValue="imap://asmo4461@ebox.su.se/Notifications/apps"
condition="OR (from,is,notification@slack.com) OR (from,is,mail-alumni-se@mecenat.com) OR (from,is,noreply@github.com) OR (from,is,learn@codecademy.com)"
name="newsletters"
enabled="yes"
type="17"
action="Move to folder"
actionValue="imap://asmo4461@ebox.su.se/Notifications/newsletters"
condition="OR (from,is,aguservice@agu.org) OR (from,is,nyhetsbrev@su.se) OR (from,is,digitalizationplatform@kth.se) OR (from,is,noreply@su.se) OR (from,is,sustainability@kth.se)"
name="nek5000"
enabled="yes"
type="17"
action="Move to folder"
actionValue="imap://asmo4461@ebox.su.se/Notifications/nek5000"
condition="AND (to or cc,contains,nek5000@googlegroups.com)"
name="FLOW seminar"
enabled="yes"
type="17"
action="Move to folder"
actionValue="imap://asmo4461@ebox.su.se/Notifications/seminarie"
condition="AND (to,is,flow@mech.kth.se) AND (subject,contains,Seminar)"
name="Fika @ mechdep"
enabled="yes"
type="17"
action="Move to folder"
actionValue="imap://asmo4461@ebox.su.se/Trash"
condition="AND (to,is,mechdep@mech.kth.se) AND (subject,contains,Fika)"
name="social"
enabled="yes"
type="17"
action="Move to folder"
actionValue="imap://asmo4461@ebox.su.se/Notifications/social"
condition="AND (to,is,social@misu.su.se)"
name="seminarie"
enabled="yes"
type="17"
action="Move to folder"
actionValue="imap://asmo4461@ebox.su.se/Notifications/seminarie"
condition="AND (to,is,seminarie@misu.su.se)"
name="internt"
enabled="yes"
type="17"
action="Move to folder"
actionValue="imap://asmo4461@ebox.su.se/Notifications/internt"
condition="OR (to or cc,is,internt@misu.su.se) OR (to or cc,is,internt-at-misu.su.se@lists.su.se)"
name="forsk"
enabled="yes"
type="17"
action="Move to folder"
actionValue="imap://asmo4461@ebox.su.se/Notifications/forsk"
condition="AND (to,contains,forsk@misu.su.se)"
name="KTH"
enabled="yes"
type="17"
action="Move to folder"
actionValue="imap://asmo4461@ebox.su.se/Notifications/KTH"
condition="OR (from,is,info@lifescience.kth.se) OR (from,is,hr@thsint.se) OR (from,is,naringsliv@ths.kth.se) OR (from,is,Researchplatforms@kth.se)"
name="mechdep"
enabled="yes"
type="48"
action="Move to folder"
actionValue="imap://asmo4461@ebox.su.se/Archives/mech.kth.se"
condition="OR (to or cc,is,mechdep@mech.kth.se) OR (from,is,admchef@sci.kth.se) OR (from,is,skolchef@sci.kth.se) OR (to or cc,is,doc@mech.kth.se)"
