{
    "feed_url": "https://zealusercontributions.now.sh/docsets/iPython.xml",
    "name": "iPython",
    "title": "iPython",
    "urls": [
        "http://kapeli.com/feeds/zzz/user_contributed/build/iPython/iPython.tgz",
        "http://sanfrancisco.kapeli.com/feeds/zzz/user_contributed/build/iPython/iPython.tgz",
        "http://newyork.kapeli.com/feeds/zzz/user_contributed/build/iPython/iPython.tgz",
        "http://london.kapeli.com/feeds/zzz/user_contributed/build/iPython/iPython.tgz",
        "http://frankfurt.kapeli.com/feeds/zzz/user_contributed/build/iPython/iPython.tgz"
    ],
    "version": "2.1.0"
}
