{
  "Notebook": {
    "Toolbar": true,
    "Header": true
  },
  "load_extensions": {
    "rise/main": true,
    "jupyter-js-widgets/extension": true,
    "jupyter-matplotlib/extension": true,
    "cite2c/main": true,
    "jupytext/index": true,
    "nbextensions_configurator/config_menu/main": true,
    "contrib_nbextensions_help_item/main": true,
    "hide_code/hide_code": false,
    "hide_input/main": true,
    "execute_time/ExecuteTime": true
  },
  "Cell": {
    "cm_config": {
      "lineNumbers": true
    }
  },
  "MarkdownCell": {
    "cm_config": {
      "lineWrapping": true
    }
  },
  "CodeCell": {
    "cm_config": {
      "lineWrapping": true
    }
  },
  "ExecuteTime": {
    "relative_timing_update_period": "11",
    "clear_timings_on_clear_output": true,
    "highlight": {
      "color": "#00bb00"
    }
  },
  "rise": {
    "transition": "fade"
  }
}
